{
  "data": [
    {
      "category": "3.10",
      "date": "2024-08",
      "downloads": 40
    },
    {
      "category": "3.10",
      "date": "2024-09",
      "downloads": 248
    },
    {
      "category": "3.10",
      "date": "2024-10",
      "downloads": 242
    },
    {
      "category": "3.10",
      "date": "2024-11",
      "downloads": 240
    },
    {
      "category": "3.10",
      "date": "2024-12",
      "downloads": 254
    },
    {
      "category": "3.10",
      "date": "2025-01",
      "downloads": 250
    },
    {
      "category": "3.10",
      "date": "2025-02",
      "downloads": 177
    },
    {
      "category": "3.11",
      "date": "2024-08",
      "downloads": 40
    },
    {
      "category": "3.11",
      "date": "2024-09",
      "downloads": 239
    },
    {
      "category": "3.11",
      "date": "2024-10",
      "downloads": 239
    },
    {
      "category": "3.11",
      "date": "2024-11",
      "downloads": 240
    },
    {
      "category": "3.11",
      "date": "2024-12",
      "downloads": 251
    },
    {
      "category": "3.11",
      "date": "2025-01",
      "downloads": 248
    },
    {
      "category": "3.11",
      "date": "2025-02",
      "downloads": 176
    },
    {
      "category": "3.12",
      "date": "2024-08",
      "downloads": 40
    },
    {
      "category": "3.12",
      "date": "2024-09",
      "downloads": 242
    },
    {
      "category": "3.12",
      "date": "2024-10",
      "downloads": 239
    },
    {
      "category": "3.12",
      "date": "2024-11",
      "downloads": 240
    },
    {
      "category": "3.12",
      "date": "2024-12",
      "downloads": 250
    },
    {
      "category": "3.12",
      "date": "2025-01",
      "downloads": 250
    },
    {
      "category": "3.12",
      "date": "2025-02",
      "downloads": 176
    },
    {
      "category": "3.8",
      "date": "2024-08",
      "downloads": 40
    },
    {
      "category": "3.8",
      "date": "2024-09",
      "downloads": 238
    },
    {
      "category": "3.8",
      "date": "2024-10",
      "downloads": 240
    },
    {
      "category": "3.8",
      "date": "2024-11",
      "downloads": 242
    },
    {
      "category": "3.8",
      "date": "2024-12",
      "downloads": 252
    },
    {
      "category": "3.8",
      "date": "2025-01",
      "downloads": 248
    },
    {
      "category": "3.8",
      "date": "2025-02",
      "downloads": 176
    },
    {
      "category": "3.9",
      "date": "2024-08",
      "downloads": 1
    },
    {
      "category": "3.9",
      "date": "2024-10",
      "downloads": 8
    },
    {
      "category": "3.9",
      "date": "2024-11",
      "downloads": 2
    },
    {
      "category": "null",
      "date": "2024-08",
      "downloads": 2
    },
    {
      "category": "null",
      "date": "2024-09",
      "downloads": 35
    },
    {
      "category": "null",
      "date": "2024-10",
      "downloads": 105
    },
    {
      "category": "null",
      "date": "2024-11",
      "downloads": 59
    },
    {
      "category": "null",
      "date": "2024-12",
      "downloads": 44
    },
    {
      "category": "null",
      "date": "2025-01",
      "downloads": 96
    },
    {
      "category": "null",
      "date": "2025-02",
      "downloads": 70
    }
  ],
  "package": "uhkamalli",
  "type": "python_minor_downloads"
}
